<?xml version="1.0" encoding="UTF-8"?>
<!DOCTYPE svg PUBLIC "-//W3C//DTD SVG 1.0//EN" "http://www.w3.org/TR/2001/REC-SVG-20010904/DTD/svg10.dtd">
<!-- Creator: CorelDRAW X8 -->
<svg xmlns="http://www.w3.org/2000/svg" xml:space="preserve" width="83px" height="83px" version="1.0" style="shape-rendering:geometricPrecision; text-rendering:geometricPrecision; image-rendering:optimizeQuality; fill-rule:evenodd; clip-rule:evenodd"
viewBox="0 0 8300 8300"
 xmlns:xlink="http://www.w3.org/1999/xlink">
 <defs>
  <style type="text/css">
   <![CDATA[
    .fil0 {fill:#9A8AFF;fill-rule:nonzero}
   ]]>
  </style>
 </defs>
 <g id="Layer_x0020_1">
  <metadata id="CorelCorpID_0Corel-Layer"/>
  <path class="fil0" d="M650 44l7000 0c167,0 319,68 428,178 110,109 178,261 178,428l0 5000c0,167 -68,319 -178,429 -109,109 -261,177 -428,177l-2941 0 -1969 1969c-41,42 -109,42 -150,0 -21,-21 -31,-48 -31,-75l0 -1894 -1909 0c-167,0 -319,-68 -428,-177 -110,-110 -178,-262 -178,-429l0 -5000c0,-167 68,-319 178,-428 109,-110 261,-178 428,-178zm1822 3035l733 0c6,-322 55,-623 136,-881l-575 0c-173,253 -280,555 -294,881zm875 0l1606 0c-6,-326 -58,-628 -143,-881l-1320 0c-85,253 -137,555 -143,881zm1748 0l733 0c-14,-326 -121,-628 -294,-881l-575 0c81,258 130,559 136,881zm733 142l-733 0c-6,322 -55,623 -136,881l575 0c173,-253 280,-555 294,-881zm-875 0l-1606 0c6,326 58,628 143,881l1320 0c85,-253 137,-555 143,-881zm-1748 0l-733 0c14,326 121,628 295,881l575 0c-82,-258 -131,-559 -137,-881zm2219 1023l-515 0c-24,61 -50,120 -77,175 -71,143 -155,262 -248,353 289,-77 548,-229 753,-435 31,-30 60,-61 87,-93zm-667 0l-1214 0c16,39 33,76 51,112 147,292 343,473 556,473 213,0 409,-181 556,-473 18,-36 35,-73 51,-112zm-1366 0l-515 0c28,32 57,63 87,93 205,206 464,358 753,435 -93,-91 -177,-210 -248,-353 -27,-55 -53,-114 -77,-175zm-515 -2187l515 0c24,-62 50,-121 77,-176 71,-142 155,-262 248,-353 -289,77 -548,229 -753,435 -31,30 -60,61 -87,94zm667 0l1214 0c-16,-39 -33,-77 -51,-113 -147,-292 -343,-473 -556,-473 -213,0 -409,181 -556,473 -18,36 -35,74 -51,113zm1366 0l515 0c-27,-33 -56,-64 -87,-94 -205,-206 -464,-358 -753,-435 93,91 177,211 248,353 27,55 53,114 77,176zm-759 -728c503,0 958,204 1288,533 329,330 533,785 533,1288 0,503 -204,958 -533,1288 -330,329 -785,533 -1288,533 -503,0 -958,-204 -1288,-533 -329,-330 -533,-785 -533,-1288 0,-503 204,-958 533,-1288 330,-329 785,-533 1288,-533zm3500 -1073l-7000 0c-108,0 -207,45 -278,116 -71,71 -116,170 -116,278l0 5000c0,108 45,207 116,278 71,72 170,116 278,116l2015 0c59,0 106,47 106,106l0 1743 1818 -1817c19,-20 46,-32 76,-32l2985 0c108,0 207,-44 278,-116 71,-71 116,-170 116,-278l0 -5000c0,-108 -45,-207 -116,-278 -71,-71 -170,-116 -278,-116z"/>
 </g>
</svg>
